{
  "getChildHealthRecords" : {
    "transaction" : "getChildHealthRecords",
    "sampleCount" : 32,
    "errorCount" : 0,
    "errorPct" : 0.0,
    "meanResTime" : 9.093749999999998,
    "medianResTime" : 8.0,
    "minResTime" : 6.0,
    "maxResTime" : 27.0,
    "pct1ResTime" : 11.099999999999998,
    "pct2ResTime" : 25.699999999999996,
    "pct3ResTime" : 27.0,
    "throughput" : 0.11166750998900773,
    "receivedKBytesPerSec" : 0.05365274894003106,
    "sentKBytesPerSec" : 0.2694632980301153
  },
  "getClassAttendanceSummaries" : {
    "transaction" : "getClassAttendanceSummaries",
    "sampleCount" : 31,
    "errorCount" : 0,
    "errorPct" : 0.0,
    "meanResTime" : 6.741935483870969,
    "medianResTime" : 5.0,
    "minResTime" : 4.0,
    "maxResTime" : 37.0,
    "pct1ResTime" : 7.0,
    "pct2ResTime" : 25.599999999999973,
    "pct3ResTime" : 37.0,
    "throughput" : 0.10654019314705984,
    "receivedKBytesPerSec" : 0.06336228283843695,
    "sentKBytesPerSec" : 0.11340704153349142
  },
  "childByID" : {
    "transaction" : "childByID",
    "sampleCount" : 32,
    "errorCount" : 0,
    "errorPct" : 0.0,
    "meanResTime" : 40.34374999999999,
    "medianResTime" : 39.0,
    "minResTime" : 36.0,
    "maxResTime" : 85.0,
    "pct1ResTime" : 41.7,
    "pct2ResTime" : 62.89999999999993,
    "pct3ResTime" : 85.0,
    "throughput" : 0.11223816939545717,
    "receivedKBytesPerSec" : 0.2839007772931661,
    "sentKBytesPerSec" : 1.4288445080460737
  },
  "getChildStatementOfAccount" : {
    "transaction" : "getChildStatementOfAccount",
    "sampleCount" : 32,
    "errorCount" : 0,
    "errorPct" : 0.0,
    "meanResTime" : 1524.8750000000002,
    "medianResTime" : 1499.0,
    "minResTime" : 1361.0,
    "maxResTime" : 2511.0,
    "pct1ResTime" : 1603.1,
    "pct2ResTime" : 2041.0499999999984,
    "pct3ResTime" : 2511.0,
    "throughput" : 0.10982863301105494,
    "receivedKBytesPerSec" : 0.15331363925755845,
    "sentKBytesPerSec" : 0.17900780126508856
  },
  "findClassActivities" : {
    "transaction" : "findClassActivities",
    "sampleCount" : 32,
    "errorCount" : 0,
    "errorPct" : 0.0,
    "meanResTime" : 4877.468750000001,
    "medianResTime" : 4840.5,
    "minResTime" : 4683.0,
    "maxResTime" : 5722.0,
    "pct1ResTime" : 5110.8,
    "pct2ResTime" : 5404.149999999999,
    "pct3ResTime" : 5722.0,
    "throughput" : 0.10714094391171586,
    "receivedKBytesPerSec" : 0.10137649432320404,
    "sentKBytesPerSec" : 0.3511377028981625
  },
  "Total" : {
    "transaction" : "Total",
    "sampleCount" : 286,
    "errorCount" : 0,
    "errorPct" : 0.0,
    "meanResTime" : 1051.3006993007004,
    "medianResTime" : 51.0,
    "minResTime" : 4.0,
    "maxResTime" : 5722.0,
    "pct1ResTime" : 4712.1,
    "pct2ResTime" : 4843.0,
    "pct3ResTime" : 5140.78,
    "throughput" : 0.9507947114537518,
    "receivedKBytesPerSec" : 1.419897025982294,
    "sentKBytesPerSec" : 3.382508416070758
  },
  "getAllClassInfo" : {
    "transaction" : "getAllClassInfo",
    "sampleCount" : 31,
    "errorCount" : 0,
    "errorPct" : 0.0,
    "meanResTime" : 69.38709677419355,
    "medianResTime" : 50.0,
    "minResTime" : 43.0,
    "maxResTime" : 598.0,
    "pct1ResTime" : 67.80000000000001,
    "pct2ResTime" : 282.39999999999924,
    "pct3ResTime" : 598.0,
    "throughput" : 0.10632314003100521,
    "receivedKBytesPerSec" : 0.30736712179830156,
    "sentKBytesPerSec" : 0.27297220228663344
  },
  "getChildrenToAssignToClass" : {
    "transaction" : "getChildrenToAssignToClass",
    "sampleCount" : 32,
    "errorCount" : 0,
    "errorPct" : 0.0,
    "meanResTime" : 1540.25,
    "medianResTime" : 1537.5,
    "minResTime" : 1518.0,
    "maxResTime" : 1585.0,
    "pct1ResTime" : 1563.2,
    "pct2ResTime" : 1577.85,
    "pct3ResTime" : 1585.0,
    "throughput" : 0.11103438943230198,
    "receivedKBytesPerSec" : 0.38180947669839244,
    "sentKBytesPerSec" : 0.44142675720595836
  },
  "bankAccountsByFkChild" : {
    "transaction" : "bankAccountsByFkChild",
    "sampleCount" : 32,
    "errorCount" : 0,
    "errorPct" : 0.0,
    "meanResTime" : 10.1875,
    "medianResTime" : 8.0,
    "minResTime" : 6.0,
    "maxResTime" : 33.0,
    "pct1ResTime" : 22.799999999999997,
    "pct2ResTime" : 29.099999999999987,
    "pct3ResTime" : 33.0,
    "throughput" : 0.10945484645537322,
    "receivedKBytesPerSec" : 0.06424058859343681,
    "sentKBytesPerSec" : 0.14034591151943848
  },
  "getChildrenData" : {
    "transaction" : "getChildrenData",
    "sampleCount" : 32,
    "errorCount" : 0,
    "errorPct" : 0.0,
    "meanResTime" : 1320.03125,
    "medianResTime" : 1313.0,
    "minResTime" : 1303.0,
    "maxResTime" : 1446.0,
    "pct1ResTime" : 1333.7,
    "pct2ResTime" : 1383.6,
    "pct3ResTime" : 1446.0,
    "throughput" : 0.11229528043991677,
    "receivedKBytesPerSec" : 0.06656565940139597,
    "sentKBytesPerSec" : 0.33337661380600286
  }
}